…
    ## 21 2009-05-17     3
    ## 22 2009-05-18     1
    ## 23 2009-05-19     0
    ## 24 2009-05-20     2
    ## 25 2009-05-21     0
    ## 26 2009-05-22     0
    ## 27 2009-05-23     0
    ## 28 2009-05-24     0
    ## 29 2009-05-25     2
    ## 30 2009-05-26     0
    ## 31 2009-05-27     2
    ## 32 2009-05-28     0
    ## 
    ## $cl.daily
    ## # A tibble: 32 × 4
    ##       id date       value     t
    ##    <int> <date>     <dbl> <int>
    ##  1     1 2009-04-27 1         1
    ##  2     1 2009-04-28 0.667     2
    ##  3     1 2009-04-29 1         3
    ##  4     1 2009-04-30 2.33      4
    ##  5     1 2009-05-01 3.33      5
    ##  6     1 2009-05-02 3.67      6
    ##  7     1 2009-05-03 3         7
    ##  8     1 2009-05-04 4         8
    ##  9     1 2009-05-05 3.67      9
    ## 10     1 2009-05-06 4.33     10
    ## # ℹ 22 more rows
    ## 
    ## $inferred.agg
    ## NULL
    ## 
    ## $R
    ## # A tibble: 27 × 5
    ##    date        mean   lwr   upr use  
    ##    <date>     <dbl> <dbl> <dbl> <lgl>
    ##  1 2009-05-03  3.41  1.35  8.72 FALSE
    ##  2 2009-05-04  2.61  1.16  6.21 FALSE
    ##  3 2009-05-05  2.13  1.09  4.65 FALSE
    ##  4 2009-05-06  1.85  1.06  3.69 FALSE
    ##  5 2009-05-07  1.69  1.05  3.12 FALSE
    ##  6 2009-05-08  1.55  1.03  2.70 FALSE
    ##  7 2009-05-09  1.59  1.11  2.59 FALSE
    ##  8 2009-05-10  1.65  1.17  2.60 FALSE
    ##  9 2009-05-11  1.70  1.19  2.65 FALSE
    ## 10 2009-05-12  1.62  1.13  2.54 FALSE
    ## # ℹ 17 more rows
    ## 
    ## $diagnostic.mcmc
    ## NULL
…
